<svg width="16" height="16" viewBox="0 0 16 16" fill="none" xmlns="http://www.w3.org/2000/svg">
<g id="Favicon">
<rect id="Rectangle 41" width="16" height="16" fill="#34E4CB"/>
<path id="DBN" d="M6.02 8.038C6.02 8.622 5.846 9.096 5.498 9.46C5.15 9.82 4.668 10 4.052 10H2.24V9.43H2.69V6.67H2.24V6.1H4.016C4.672 6.1 5.17 6.28 5.51 6.64C5.85 7 6.02 7.466 6.02 8.038ZM5.306 8.044C5.306 7.128 4.87 6.67 3.998 6.67H3.356V9.43H3.998C4.87 9.43 5.306 8.968 5.306 8.044ZM9.65258 8.86C9.65258 9.172 9.54458 9.44 9.32858 9.664C9.11658 9.888 8.79058 10 8.35058 10H6.38258V9.43H6.83258V6.67H6.38258V6.1H8.32658C8.69458 6.1 8.98258 6.184 9.19058 6.352C9.40258 6.52 9.50858 6.744 9.50858 7.024C9.50858 7.228 9.44658 7.406 9.32258 7.558C9.19858 7.71 9.02858 7.806 8.81258 7.846V7.87C9.09258 7.914 9.30258 8.026 9.44258 8.206C9.58258 8.386 9.65258 8.604 9.65258 8.86ZM8.79458 7.192C8.79458 6.988 8.73458 6.85 8.61458 6.778C8.49858 6.706 8.34858 6.67 8.16458 6.67H7.49858V7.738H8.12258C8.35058 7.738 8.51858 7.688 8.62658 7.588C8.73858 7.484 8.79458 7.352 8.79458 7.192ZM8.93858 8.836C8.93858 8.452 8.71858 8.26 8.27858 8.26H7.49858V9.43H8.18858C8.68858 9.43 8.93858 9.232 8.93858 8.836ZM14.166 6.67H13.716V10L13.332 10.006L11.172 7.3H11.148V9.43H11.718V10H10.092V9.43H10.524V6.67H10.032V6.1H11.01L13.068 8.68H13.092V6.67H12.522V6.1H14.166V6.67Z" fill="#6D10E2"/>
</g>
</svg>
